…
cv_df
```

    ## # A tibble: 100 x 9
    ##    train             test             .id   fit1   fit2  fit3  rmse1 rmse2 rmse3
    ##    <list>            <list>           <chr> <list> <lis> <lis> <dbl> <dbl> <dbl>
    ##  1 <tibble [3,473 ×… <tibble [869 × … 001   <lm>   <lm>  <lm>   530.  333.  289.
    ##  2 <tibble [3,473 ×… <tibble [869 × … 002   <lm>   <lm>  <lm>   496.  374.  319.
    ##  3 <tibble [3,473 ×… <tibble [869 × … 003   <lm>   <lm>  <lm>   501.  310.  278.
    ##  4 <tibble [3,473 ×… <tibble [869 × … 004   <lm>   <lm>  <lm>   482.  311.  276.
    ##  5 <tibble [3,473 ×… <tibble [869 × … 005   <lm>   <lm>  <lm>   504.  369.  301.
    ##  6 <tibble [3,473 ×… <tibble [869 × … 006   <lm>   <lm>  <lm>   516.  331.  288.
    ##  7 <tibble [3,473 ×… <tibble [869 × … 007   <lm>   <lm>  <lm>   514.  360.  305.
    ##  8 <tibble [3,473 ×… <tibble [869 × … 008   <lm>   <lm>  <lm>   487.  311.  273.
    ##  9 <tibble [3,473 ×… <tibble [869 × … 009   <lm>   <lm>  <lm>   524.  336.  291.
    ## 10 <tibble [3,473 ×… <tibble [869 × … 010   <lm>   <lm>  <lm>   499.  331.  299.
    ## # … with 90 more rows
…
    ## Warning: `data_frame()` is deprecated as of tibble 1.1.0.
    ## Please use `tibble()` instead.
    ## This warning is displayed once every 8 hours.
    ## Call `lifecycle::last_warnings()` to see where this warning was generated.

``` r
bootstraps
```

    ## # A tibble: 5,000 x 2
    ##    strap_number strap_sample      
    ##           <int> <list>            
    ##  1            1 <tibble [365 × 6]>
    ##  2            2 <tibble [365 × 6]>
    ##  3            3 <tibble [365 × 6]>
    ##  4            4 <tibble [365 × 6]>
    ##  5            5 <tibble [365 × 6]>
    ##  6            6 <tibble [365 × 6]>
    ##  7            7 <tibble [365 × 6]>
    ##  8            8 <tibble [365 × 6]>
    ##  9            9 <tibble [365 × 6]>
    ## 10           10 <tibble [365 × 6]>
    ## # … with 4,990 more rows
…
    ## Warning: unnest() has a new interface. See ?unnest for details.
    ## Try `df %>% unnest(c(broomtidy, broomglance))`, with `mutate()` if needed

``` r
bootstraps_output
```

    ## # A tibble: 5,000 x 2
    ##      rsq log_eq
    ##    <dbl>  <dbl>
    ##  1 0.896   2.03
    ##  2 0.918   2.05
    ##  3 0.899   2.07
    ##  4 0.913   1.97
    ##  5 0.919   1.99
    ##  6 0.918   2.00
    ##  7 0.907   2.00
    ##  8 0.916   2.01
    ##  9 0.918   2.02
    ## 10 0.918   2.00
    ## # … with 4,990 more rows
…
